{
  "project_info": {
    "project_number": "764260014305",
    "firebase_url": "https://think-tac-india.firebaseio.com",
    "project_id": "think-tac-india",
    "storage_bucket": "think-tac-india.appspot.com"
  },
  "client": [
    {
      "client_info": {
        "mobilesdk_app_id": "1:764260014305:android:2de1665f1df38fd1",
        "android_client_info": {
          "package_name": "com.thinktac.thinktac"
        }
      },
      "oauth_client": [
        {
          "client_id": "764260014305-9vkkks1q39uvhr61vb4hlojvbst4h710.apps.googleusercontent.com",
          "client_type": 3
        }
      ],
      "api_key": [
        {
          "current_key": "AIzaSyAsp3rzRdZZFQ5BdPWHSYRzVBkjuw-MK4A"
        }
      ],
      "services": {
        "analytics_service": {
          "status": 1
        },
        "appinvite_service": {
          "status": 1,
          "other_platform_oauth_client": []
        },
        "ads_service": {
          "status": 2
        }
      }
    }
  ],
  "configuration_version": "1"
}